Analyze Mass Cytometry Data Using Tidy Data Principles • tidytof
…
Because tof_tbls inherit from the tbl_df class, all methods available to tibbles are also available to tof_tbls. For example, dplyr’s useful mutate method can be applied to our tof_tbl named phenograph above to convert the columns encoding the phenograph cluster and stimulation condition to which each cell belongs into character vectors (instead of their original numeric codes in the uncleaned dataset).

phenograph <- 
  phenograph %>% 
  # mutate the input tof_tbl
  mutate(
    `PhenoGraph|PhenoGraph` = as.character(`PhenoGraph|PhenoGraph`), 
    `Condition|Condition` = as.character(`Condition|Condition`)
  )

phenograph %>% 
  # use dplyr's select method to show that the columns have been changed
  select(where(is.character))
#> # A tibble: 77,563 × 3
#>    file_name              `PhenoGraph|PhenoGraph` `Condition|Condition`
#>    <chr>                  <chr>                   <chr>                
#>  1 H1_PhenoGraph_cluster1 1                       1                    
#>  2 H1_PhenoGraph_cluster1 1                       1                    
#>  3 H1_PhenoGraph_cluster1 1                       1                    
#>  4 H1_PhenoGraph_cluster1 1                       1                    
#>  5 H1_PhenoGraph_cluster1 1                       1                    
#>  6 H1_PhenoGraph_cluster1 1                       1                    
#>  7 H1_PhenoGraph_cluster1 1                       1                    
#>  8 H1_PhenoGraph_cluster1 1                       1                    
#>  9 H1_PhenoGraph_cluster1 1                       1                    
#> 10 H1_PhenoGraph_cluster1 1                       1                    
#> # … with 77,553 more rows

The tof_tbl class is preserved even after these transformations.

phenograph %>% 
  class()
#> [1] "tof_tbl"    "tbl_df"     "tbl"        "data.frame"

Finally, to retrieve panel information from a tof_tbl, use tof_get_panel:

phenograph %>% 
  tof_get_panel()
#> # A tibble: 44 × 2
#>    metals      antigens   
#>    <chr>       <chr>      
#>  1 Time        Time       
#>  2 Cell_length Cell_length
#>  3 Ir191       DNA1       
#>  4 Ir193       DNA2       
#>  5 Pd104       BC1        
#>  6 Pd106       BC2        
#>  7 Pd108       BC3        
#>  8 In113       BC4        
#>  9 In115       BC5        
#> 10 La139       BC6        
#> # … with 34 more rows
…
Dimensionality reduction

{tidytof} includes several algorithms for dimensionality reduction, a process whereby high-dimensional datasets can be represented in a smaller, easier-to-visualize number of dimensions. {tidytof} supports 3 dimensionality reduction methods: PCA, tSNE, and UMAP. To apply these to a dataset, use tof_reduce_dimensions:

# perform the dimensionality reduction
phenograph_tsne <- 
  phenograph_clusters %>% 
  tof_reduce_dimensions(method = "tsne")

# select only the tsne embedding columns using a tidyselect helper (contains)
phenograph_tsne %>% 
  select(contains("tsne"))
#> # A tibble: 6,000 × 2
#>    .tsne_1 .tsne_2
#>      <dbl>   <dbl>
#>  1   15.4    4.90 
#>  2   11.8    3.48 
#>  3   27.0   -5.30 
#>  4   10.4    0.450
#>  5   17.9    0.486
#>  6   17.4    1.41 
#>  7   17.2    6.73 
#>  8   28.4    0.970
#>  9    9.77  -0.401
#> 10   22.7  -12.9  
#> # … with 5,990 more rows
…
