…
``` r
phenograph <- 
  phenograph %>% 
  # mutate the input tof_tbl
  mutate(
    `PhenoGraph|PhenoGraph` = as.character(`PhenoGraph|PhenoGraph`), 
    `Condition|Condition` = as.character(`Condition|Condition`)
  )

phenograph %>% 
  # use dplyr's select method to show that the columns have been changed
  select(where(is.character))
#> # A tibble: 77,563 × 3
#>    file_name              `PhenoGraph|PhenoGraph` `Condition|Condition`
#>    <chr>                  <chr>                   <chr>                
#>  1 H1_PhenoGraph_cluster1 1                       1                    
#>  2 H1_PhenoGraph_cluster1 1                       1                    
#>  3 H1_PhenoGraph_cluster1 1                       1                    
#>  4 H1_PhenoGraph_cluster1 1                       1                    
#>  5 H1_PhenoGraph_cluster1 1                       1                    
#>  6 H1_PhenoGraph_cluster1 1                       1                    
#>  7 H1_PhenoGraph_cluster1 1                       1                    
#>  8 H1_PhenoGraph_cluster1 1                       1                    
#>  9 H1_PhenoGraph_cluster1 1                       1                    
#> 10 H1_PhenoGraph_cluster1 1                       1                    
#> # … with 77,553 more rows
```
The `tof_tbl` class is preserved even after these transformations.

``` r
phenograph %>% 
  class()
#> [1] "tof_tbl"    "tbl_df"     "tbl"        "data.frame"
```

Finally, to retrieve panel information from a `tof_tbl`, use
`tof_get_panel`:

``` r
phenograph %>% 
  tof_get_panel()
#> # A tibble: 44 × 2
#>    metals      antigens   
#>    <chr>       <chr>      
#>  1 Time        Time       
#>  2 Cell_length Cell_length
#>  3 Ir191       DNA1       
#>  4 Ir193       DNA2       
#>  5 Pd104       BC1        
#>  6 Pd106       BC2        
#>  7 Pd108       BC3        
#>  8 In113       BC4        
#>  9 In115       BC5        
#> 10 La139       BC6        
#> # … with 34 more rows
```
…
``` r
# perform the dimensionality reduction
phenograph_tsne <- 
  phenograph_clusters %>% 
  tof_reduce_dimensions(method = "tsne")

# select only the tsne embedding columns using a tidyselect helper (contains)
phenograph_tsne %>% 
  select(contains("tsne"))
#> # A tibble: 6,000 × 2
#>    .tsne_1 .tsne_2
#>      <dbl>   <dbl>
#>  1  -15.4   -2.19 
#>  2  -12.7   -4.00 
#>  3  -25.8    6.87 
#>  4  -10.9    1.40 
#>  5  -18.3    1.14 
#>  6  -17.8    0.222
#>  7  -18.2   -5.06 
#>  8  -29.6    2.22 
#>  9   -9.76   2.45 
#> 10  -21.2   14.9  
#> # … with 5,990 more rows
```
…
