Cluster high-dimensional cytometry data. — tof_cluster • tidytof
…
    Examples

sim_data <-
    dplyr::tibble(
        cd45 = rnorm(n = 500),
        cd38 = rnorm(n = 500),
        cd34 = rnorm(n = 500),
        cd19 = rnorm(n = 500)
    )

tof_cluster(tof_tibble = sim_data, method = "kmeans")
#> # A tibble: 500 × 5
#>      cd45   cd38   cd34   cd19 .kmeans_cluster
#>     <dbl>  <dbl>  <dbl>  <dbl> <chr>          
#>  1  1.33  -0.447  1.50   0.436 11             
#>  2 -1.20  -0.481 -0.391 -1.54  9              
#>  3 -0.541  0.666 -1.68  -0.986 16             
#>  4 -1.22   1.32   0.689 -0.791 10             
#>  5  0.639  0.519 -1.32  -0.204 18             
#>  6 -0.239  0.397 -0.780  0.372 1              
#>  7  0.651  0.997 -0.665  0.805 18             
#>  8  0.788  1.26   0.584 -0.953 19             
#>  9 -0.344  0.388 -0.407 -0.442 13             
#> 10  0.120  0.885 -2.26   0.583 17             
#> # ℹ 490 more rows
tof_cluster(tof_tibble = sim_data, method = "phenograph")
#> # A tibble: 500 × 5
#>      cd45   cd38   cd34   cd19 .phenograph_cluster
#>     <dbl>  <dbl>  <dbl>  <dbl> <chr>              
#>  1  1.33  -0.447  1.50   0.436 2                  
#>  2 -1.20  -0.481 -0.391 -1.54  1                  
#>  3 -0.541  0.666 -1.68  -0.986 1                  
#>  4 -1.22   1.32   0.689 -0.791 3                  
#>  5  0.639  0.519 -1.32  -0.204 5                  
#>  6 -0.239  0.397 -0.780  0.372 5                  
#>  7  0.651  0.997 -0.665  0.805 4                  
#>  8  0.788  1.26   0.584 -0.953 8                  
#>  9 -0.344  0.388 -0.407 -0.442 1                  
#> 10  0.120  0.885 -2.26   0.583 5                  
#> # ℹ 490 more rows
…
