Extract aggregated features from CyTOF data using earth-mover's distance (EMD) — tof_extract_emd • tidytof
…
# extract emd of each cluster (using the "basal" stim
# condition as a reference) in long format
tof_extract_emd(
    tof_tibble = sim_data,
    cluster_col = cluster_id,
    emd_col = stim,
    reference_level = "basal",
    format = "long"
)
#> # A tibble: 104 × 4
#>    cluster_id marker stimulation   emd
#>    <chr>      <chr>  <chr>       <dbl>
#>  1 t          cd45   stim        13.5 
#>  2 t          cd38   stim         4.68
#>  3 t          cd34   stim        10.9 
#>  4 t          cd19   stim         7.83
#>  5 w          cd45   stim         4.65
#>  6 w          cd38   stim         6.85
#>  7 w          cd34   stim         6.15
#>  8 w          cd19   stim         4.67
#>  9 v          cd45   stim        12.5 
#> 10 v          cd38   stim         8.5 
#> # ℹ 94 more rows
…
