Upsample cells into the closest cluster in a reference dataset — tof_upsample • tidytof
…
# upsample using distance to cluster centroids
tof_upsample(
    tof_tibble = sim_data,
    reference_tibble = reference_data,
    reference_cluster_col = cluster_id,
    method = "distance"
)
#> # A tibble: 1,000 × 5
#>       cd45    cd38   cd34   cd19 .upsample_cluster
#>      <dbl>   <dbl>  <dbl>  <dbl> <chr>            
#>  1  1.19    1.33    0.908  1.77  a                
#>  2 -1.79    0.0663 -0.388 -1.38  b                
#>  3 -0.273   1.71   -0.706  0.366 a                
#>  4 -1.02   -0.0678 -0.265  1.37  a                
#>  5 -1.51    0.0333 -0.198 -0.204 b                
#>  6 -0.273   0.217   2.07   1.03  b                
#>  7  0.822   0.953   0.167 -1.07  a                
#>  8  0.783  -0.465   0.657  0.575 a                
#>  9  0.0513 -0.380  -0.509  1.08  a                
#> 10  0.856   0.153   0.388 -1.76  a                
#> # ℹ 990 more rows

# upsample using distance to nearest neighbor
tof_upsample(
    tof_tibble = sim_data,
    reference_tibble = reference_data,
    reference_cluster_col = cluster_id,
    method = "neighbor"
)
#> # A tibble: 1,000 × 5
#>       cd45    cd38   cd34   cd19 .upsample_cluster
#>      <dbl>   <dbl>  <dbl>  <dbl> <chr>            
#>  1  1.19    1.33    0.908  1.77  a                
#>  2 -1.79    0.0663 -0.388 -1.38  b                
#>  3 -0.273   1.71   -0.706  0.366 b                
#>  4 -1.02   -0.0678 -0.265  1.37  b                
#>  5 -1.51    0.0333 -0.198 -0.204 b                
#>  6 -0.273   0.217   2.07   1.03  b                
#>  7  0.822   0.953   0.167 -1.07  b                
#>  8  0.783  -0.465   0.657  0.575 a                
#>  9  0.0513 -0.380  -0.509  1.08  b                
#> 10  0.856   0.153   0.388 -1.76  a                
#> # ℹ 990 more rows
…
