Extract aggregated features from CyTOF data using the Jensen-Shannon Distance (JSD) — tof_extract_jsd • tidytof
…
# extract jsd of each cluster (using the "basal" stim
# condition as a reference) in long format
tof_extract_jsd(
    tof_tibble = sim_data,
    cluster_col = cluster_id,
    jsd_col = stim,
    reference_level = "basal",
    format = "long"
)
#> # A tibble: 104 × 4
#>    cluster_id marker stimulation    jsd
#>    <chr>      <chr>  <chr>        <dbl>
#>  1 b          cd45   stim         0.750
#>  2 b          cd38   stim         0.714
#>  3 b          cd34   stim         0.806
#>  4 b          cd19   stim         0.783
#>  5 u          cd45   stim         0.611
#>  6 u          cd38   stim         0.608
#>  7 u          cd34   stim         0.812
#>  8 u          cd19   stim         0.692
#>  9 t          cd45   stim        NA    
#> 10 t          cd38   stim        NA    
#> # … with 94 more rows
…
