Downsample high-dimensional cytometry data by randomly selecting a proportion of the cells in each group. — tof_downsample_density • tidytof
…
sim_data <-
    dplyr::tibble(
        cd45 = rnorm(n = 1000),
        cd38 = rnorm(n = 1000),
        cd34 = rnorm(n = 1000),
        cd19 = rnorm(n = 1000)
    )

tof_downsample_density(
    tof_tibble = sim_data,
    density_cols = c(cd45, cd34, cd38),
    target_prop_cells = 0.5,
    density_estimation_method = "spade"
)
#> # A tibble: 509 × 4
#>      cd45    cd38    cd34   cd19
#>     <dbl>   <dbl>   <dbl>  <dbl>
#>  1  0.929 -0.808  -1.00    0.609
#>  2  0.197  0.467  -1.34    1.28 
#>  3  1.27  -0.850  -0.674   1.32 
#>  4 -0.130  0.0429 -1.83   -1.29 
#>  5  0.285 -1.14   -1.05   -0.511
#>  6 -1.36  -0.554   2.13   -0.748
#>  7 -1.98  -0.683  -0.259   0.741
#>  8 -0.831  0.972  -0.540  -0.537
#>  9  0.264 -0.555   0.137  -0.445
#> 10 -1.19   1.42   -0.0346  0.691
#> # ℹ 499 more rows

tof_downsample_density(
    tof_tibble = sim_data,
    density_cols = c(cd45, cd34, cd38),
    target_num_cells = 200L,
    density_estimation_method = "spade"
)
#> # A tibble: 205 × 4
#>       cd45     cd38    cd34   cd19
#>      <dbl>    <dbl>   <dbl>  <dbl>
#>  1  0.929  -0.808   -1.00    0.609
#>  2  0.0373 -0.243    1.10    1.02 
#>  3  0.285  -1.14    -1.05   -0.511
#>  4 -1.19    1.42    -0.0346  0.691
#>  5 -0.128   0.00787 -0.552   0.722
#>  6  1.65   -0.118    1.02   -0.267
#>  7  0.955  -0.189    0.389  -0.573
#>  8  0.982  -0.176   -0.126  -0.736
#>  9  0.448  -1.10     0.131   1.29 
#> 10  1.11    0.954   -0.301  -0.740
#> # ℹ 195 more rows

tof_downsample_density(
    tof_tibble = sim_data,
    density_cols = c(cd45, cd34, cd38),
    target_num_cells = 200L,
    density_estimation_method = "mean_distance"
)
#> # A tibble: 213 × 4
#>       cd45    cd38   cd34   cd19
#>      <dbl>   <dbl>  <dbl>  <dbl>
#>  1  1.27   -0.850  -0.674  1.32 
#>  2 -0.130   0.0429 -1.83  -1.29 
#>  3  0.285  -1.14   -1.05  -0.511
#>  4 -0.189   0.642  -0.510 -1.24 
#>  5  0.0468 -2.06    1.61   0.304
#>  6 -0.319   1.72    0.378  0.146
#>  7  0.478  -0.537   0.411  0.163
#>  8  0.0946  1.71    0.181  0.220
#>  9  0.955  -0.189   0.389 -0.573
#> 10 -0.522   1.13    0.580  0.360
#> # ℹ 203 more rows
…
