Estimate the local densities for all cells in a high-dimensional cytometry dataset. — tof_estimate_density • tidytof
…
    Examples

sim_data <-
    dplyr::tibble(
        cd45 = rnorm(n = 1000),
        cd38 = rnorm(n = 1000),
        cd34 = rnorm(n = 1000),
        cd19 = rnorm(n = 1000)
    )

# perform the density estimation
tof_estimate_density(tof_tibble = sim_data, method = "spade")
#> # A tibble: 1,000 × 5
#>       cd45   cd38    cd34      cd19 .spade_density
#>      <dbl>  <dbl>   <dbl>     <dbl>          <dbl>
#>  1  0.760   0.167 -0.222  -0.928                 1
#>  2  0.0804 -0.569 -0.324   1.58                  1
#>  3  0.767   0.837  0.473   0.417                 1
#>  4  1.05   -1.14   0.0856 -0.0271                1
#>  5 -1.53   -0.352  0.710   0.000200              1
#>  6  0.371   0.875 -0.0882  0.514                 1
#>  7  0.655  -2.26   0.0972 -0.120                 1
#>  8  0.501   1.31   0.876  -0.0215                1
#>  9 -0.286  -0.307  1.53   -0.0930                1
#> 10 -0.0880 -1.71  -0.516   0.705                 1
#> # ℹ 990 more rows

# perform the density estimation with a smaller search radius around
# each cell
tof_estimate_density(
    tof_tibble = sim_data,
    alpha_multiplier = 2,
    method = "spade"
)
#> # A tibble: 1,000 × 5
#>       cd45   cd38    cd34      cd19 .spade_density
#>      <dbl>  <dbl>   <dbl>     <dbl>          <dbl>
#>  1  0.760   0.167 -0.222  -0.928               1  
#>  2  0.0804 -0.569 -0.324   1.58                1  
#>  3  0.767   0.837  0.473   0.417               1  
#>  4  1.05   -1.14   0.0856 -0.0271              1  
#>  5 -1.53   -0.352  0.710   0.000200            0.8
#>  6  0.371   0.875 -0.0882  0.514               1  
#>  7  0.655  -2.26   0.0972 -0.120               0.4
#>  8  0.501   1.31   0.876  -0.0215              0.9
#>  9 -0.286  -0.307  1.53   -0.0930              0.8
#> 10 -0.0880 -1.71  -0.516   0.705               1  
#> # ℹ 990 more rows
…
