Manually annotate tidytof-computed clusters using user-specified labels — tof_annotate_clusters • tidytof
…
# using named character vector
sim_data |>
    tof_annotate_clusters(
        cluster_col = cluster_id,
        annotations = c("macrophage" = "a", "dendritic cell" = "b")
    )
#> # A tibble: 1,000 × 6
#>        cd45   cd38   cd34   cd19 cluster_id cluster_id_annotation
#>       <dbl>  <dbl>  <dbl>  <dbl> <chr>      <chr>                
#>  1 -1.40    -0.337 -0.166  1.12  a          macrophage           
#>  2  0.255   -0.216  0.120  0.400 a          macrophage           
#>  3 -2.44     0.621 -0.662 -0.985 a          macrophage           
#>  4 -0.00557 -1.28  -0.531 -0.503 a          macrophage           
#>  5  0.622   -1.30  -0.301  0.987 a          macrophage           
#>  6  1.15    -0.377 -0.602  2.19  a          macrophage           
#>  7 -1.82     0.104 -0.318 -0.165 a          macrophage           
#>  8 -0.247   -0.704  0.308 -0.686 a          macrophage           
#>  9 -0.244    1.50   0.799  0.941 a          macrophage           
#> 10 -0.283   -0.303  1.75  -0.164 a          macrophage           
#> # ℹ 990 more rows

# using two-column data.frame
annotation_data_frame <-
    data.frame(
        cluster_id = c("a", "b"),
        cluster_annotation = c("macrophage", "dendritic cell")
    )

sim_data |>
    tof_annotate_clusters(
        cluster_col = cluster_id,
        annotations = annotation_data_frame
    )
#> # A tibble: 1,000 × 6
#>        cd45   cd38   cd34   cd19 cluster_id cluster_annotation
#>       <dbl>  <dbl>  <dbl>  <dbl> <chr>      <chr>             
#>  1 -1.40    -0.337 -0.166  1.12  a          macrophage        
#>  2  0.255   -0.216  0.120  0.400 a          macrophage        
#>  3 -2.44     0.621 -0.662 -0.985 a          macrophage        
#>  4 -0.00557 -1.28  -0.531 -0.503 a          macrophage        
#>  5  0.622   -1.30  -0.301  0.987 a          macrophage        
#>  6  1.15    -0.377 -0.602  2.19  a          macrophage        
#>  7 -1.82     0.104 -0.318 -0.165 a          macrophage        
#>  8 -0.247   -0.704  0.308 -0.686 a          macrophage        
#>  9 -0.244    1.50   0.799  0.941 a          macrophage        
#> 10 -0.283   -0.303  1.75  -0.164 a          macrophage        
#> # ℹ 990 more rows
…
