Metacluster clustered CyTOF data. — tof_metacluster • tidytof
…
tof_metacluster(
    tof_tibble = sim_data,
    cluster_col = cluster_id,
    clustering_algorithm = "consensus",
    method = "flowsom"
)
#> # A tibble: 1,000 × 6
#>       cd45    cd38   cd34     cd19 cluster_id .flowsom_metacluster
#>      <dbl>   <dbl>  <dbl>    <dbl> <chr>      <chr>               
#>  1  0.526   0.809  -1.18  -0.659   d          2                   
#>  2 -1.46   -1.45   -0.988 -1.58    s          1                   
#>  3  0.282  -1.10    0.911  1.17    v          2                   
#>  4  1.12    0.659  -1.20  -1.07    k          2                   
#>  5 -0.198  -0.0439 -1.04  -2.25    i          3                   
#>  6  1.27    0.855  -2.73   0.00435 j          3                   
#>  7  0.0878 -0.239   0.774  0.214   q          1                   
#>  8  1.04   -1.60    1.07   1.62    i          3                   
#>  9  1.26    0.411  -0.568 -0.712   q          1                   
#> 10  0.0907 -0.167  -0.566  0.114   a          1                   
#> # ℹ 990 more rows

tof_metacluster(
    tof_tibble = sim_data,
    cluster_col = cluster_id,
    method = "phenograph"
)
#> # A tibble: 1,000 × 6
#>       cd45    cd38   cd34     cd19 cluster_id .phenograph_metacluster
#>      <dbl>   <dbl>  <dbl>    <dbl> <chr>      <chr>                  
#>  1  0.526   0.809  -1.18  -0.659   d          1                      
#>  2 -1.46   -1.45   -0.988 -1.58    s          4                      
#>  3  0.282  -1.10    0.911  1.17    v          1                      
#>  4  1.12    0.659  -1.20  -1.07    k          1                      
#>  5 -0.198  -0.0439 -1.04  -2.25    i          1                      
#>  6  1.27    0.855  -2.73   0.00435 j          2                      
#>  7  0.0878 -0.239   0.774  0.214   q          2                      
#>  8  1.04   -1.60    1.07   1.62    i          1                      
#>  9  1.26    0.411  -0.568 -0.712   q          2                      
#> 10  0.0907 -0.167  -0.566  0.114   a          2                      
#> # ℹ 990 more rows
…
