Perform PhenoGraph clustering on high-dimensional cytometry data. — tof_cluster_phenograph • tidytof
…
    Examples

sim_data <-
    dplyr::tibble(
        cd45 = rnorm(n = 1000),
        cd38 = rnorm(n = 1000),
        cd34 = rnorm(n = 1000),
        cd19 = rnorm(n = 1000)
    )
tof_cluster_phenograph(tof_tibble = sim_data)
#> # A tibble: 1,000 × 1
#>    .phenograph_cluster
#>    <chr>              
#>  1 1                  
#>  2 7                  
#>  3 2                  
#>  4 11                 
#>  5 2                  
#>  6 4                  
#>  7 2                  
#>  8 4                  
#>  9 2                  
#> 10 1                  
#> # ℹ 990 more rows
tof_cluster_phenograph(tof_tibble = sim_data, cluster_cols = c(cd45, cd19))
#> # A tibble: 1,000 × 1
#>    .phenograph_cluster
#>    <chr>              
#>  1 12                 
#>  2 8                  
#>  3 6                  
#>  4 5                  
#>  5 7                  
#>  6 3                  
#>  7 7                  
#>  8 3                  
#>  9 4                  
#> 10 12                 
#> # ℹ 990 more rows
…
