Apply uniform manifold approximation and projection (UMAP) to single-cell data — tof_reduce_umap • tidytof
…
# calculate umap
tof_reduce_umap(tof_tibble = sim_data)
#> # A tibble: 200 × 2
#>    .umap1  .umap2
#>     <dbl>   <dbl>
#>  1 -2.73   1.31  
#>  2 -2.70  -2.01  
#>  3 -1.12   3.50  
#>  4 -3.21   1.63  
#>  5  0.790  2.91  
#>  6 -0.980 -1.42  
#>  7  3.51  -1.76  
#>  8 -1.99  -2.63  
#>  9 -2.13   1.15  
#> 10 -1.66  -0.0996
#> # ℹ 190 more rows

# calculate umap with only 2 columns
tof_reduce_tsne(tof_tibble = sim_data, umap_cols = c(cd34, cd38))
#> # A tibble: 200 × 2
#>       .tsne1 .tsne2
#>        <dbl>  <dbl>
#>  1 -2.97     -2.92 
#>  2 -4.27     -0.599
#>  3  0.462     2.34 
#>  4 -4.94      6.91 
#>  5  4.25      6.49 
#>  6 -0.000823  1.16 
#>  7  2.04     -4.65 
#>  8 -5.32     -2.66 
#>  9 -4.75      2.24 
#> 10 -3.48      1.06 
#> # ℹ 190 more rows

# return recipe
umap_recipe <- tof_reduce_umap(tof_tibble = sim_data, return_recipe = TRUE)

# apply recipe to new data
recipes::bake(umap_recipe, new_data = new_data)
#> # A tibble: 50 × 2
#>     UMAP1    UMAP2
#>     <dbl>    <dbl>
#>  1 -2.40   1.40   
#>  2  2.68   0.413  
#>  3 -1.44   4.48   
#>  4 -0.927 -2.78   
#>  5  0.491  2.00   
#>  6  3.03  -1.40   
#>  7  2.03  -3.10   
#>  8  0.204 -0.00277
#>  9 -0.922  1.25   
#> 10 -0.865 -0.178  
#> # ℹ 40 more rows
…
