Create an elastic net hyperparameter search grid of a specified size — tof_create_grid • tidytof
…
    A tibble with two numeric columns: `penalty` and `mixture`.

    See also

    Other modeling functions:
tof_assess_model(),
tof_predict(),
tof_split_data(),
tof_train_model()

    Examples

tof_create_grid()
#> # A tibble: 25 × 2
#>         penalty mixture
#>           <dbl>   <dbl>
#>  1 0.0000000001    0   
#>  2 0.0000000001    0.25
#>  3 0.0000000001    0.5 
#>  4 0.0000000001    0.75
#>  5 0.0000000001    1   
#>  6 0.0000000316    0   
#>  7 0.0000000316    0.25
#>  8 0.0000000316    0.5 
#>  9 0.0000000316    0.75
#> 10 0.0000000316    1   
#> # ℹ 15 more rows

tof_create_grid(num_penalty_values = 10, num_mixture_values = 5)
#> # A tibble: 50 × 2
#>          penalty mixture
#>            <dbl>   <dbl>
#>  1 0.0000000001     0   
#>  2 0.0000000001     0.25
#>  3 0.0000000001     0.5 
#>  4 0.0000000001     0.75
#>  5 0.0000000001     1   
#>  6 0.00000000129    0   
#>  7 0.00000000129    0.25
#>  8 0.00000000129    0.5 
#>  9 0.00000000129    0.75
#> 10 0.00000000129    1   
#> # ℹ 40 more rows
…
