Perform FlowSOM clustering on high-dimensional cytometry data — tof_cluster_flowsom • tidytof
…
    Examples

sim_data <-
    dplyr::tibble(
        cd45 = rnorm(n = 200),
        cd38 = rnorm(n = 200),
        cd34 = rnorm(n = 200),
        cd19 = rnorm(n = 200)
    )

tof_cluster_flowsom(tof_tibble = sim_data, cluster_cols = c(cd45, cd19))
#> # A tibble: 200 × 1
#>    .flowsom_metacluster
#>    <chr>               
#>  1 10                  
#>  2 10                  
#>  3 8                   
#>  4 5                   
#>  5 10                  
#>  6 15                  
#>  7 6                   
#>  8 8                   
#>  9 15                  
#> 10 2                   
#> # ℹ 190 more rows
…
