Perform developmental clustering on high-dimensional cytometry data. — tof_cluster_ddpr • tidytof
…
healthy_data <-
    dplyr::tibble(
        cd45 = rnorm(n = 200),
        cd38 = rnorm(n = 200),
        cd34 = rnorm(n = 200),
        cd19 = rnorm(n = 200),
        cluster_id = c(rep("a", times = 100), rep("b", times = 100))
    )

tof_cluster_ddpr(
    tof_tibble = sim_data,
    healthy_tibble = healthy_data,
    healthy_label_col = cluster_id
)
#> # A tibble: 1,000 × 1
#>    .mahalanobis_cluster
#>    <chr>               
#>  1 b                   
#>  2 b                   
#>  3 b                   
#>  4 a                   
#>  5 b                   
#>  6 b                   
#>  7 b                   
#>  8 a                   
#>  9 a                   
#> 10 b                   
#> # ℹ 990 more rows
…
