Metacluster clustered CyTOF data using PhenoGraph clustering — tof_metacluster_phenograph • tidytof
…
    Examples

sim_data <-
    dplyr::tibble(
        cd45 = rnorm(n = 1000),
        cd38 = rnorm(n = 1000),
        cd34 = rnorm(n = 1000),
        cd19 = rnorm(n = 1000),
        cluster_id = sample(letters, size = 1000, replace = TRUE)
    )

tof_metacluster_phenograph(tof_tibble = sim_data, cluster_col = cluster_id)
#> # A tibble: 1,000 × 1
#>    .phenograph_metacluster
#>    <chr>                  
#>  1 1                      
#>  2 2                      
#>  3 2                      
#>  4 1                      
#>  5 3                      
#>  6 4                      
#>  7 4                      
#>  8 3                      
#>  9 1                      
#> 10 2                      
#> # … with 990 more rows
…
