Metacluster clustered CyTOF data using FlowSOM's built-in metaclustering algorithm — tof_metacluster_flowsom • tidytof
…
sim_data <-
    dplyr::tibble(
        cd45 = rnorm(n = 1000),
        cd38 = rnorm(n = 1000),
        cd34 = rnorm(n = 1000),
        cd19 = rnorm(n = 1000),
        cluster_id = sample(letters, size = 1000, replace = TRUE)
    )

tof_metacluster_flowsom(
    tof_tibble = sim_data,
    cluster_col = cluster_id,
    clustering_algorithm = "consensus"
)
#> # A tibble: 1,000 × 1
#>    .flowsom_metacluster
#>    <chr>               
#>  1 3                   
#>  2 6                   
#>  3 6                   
#>  4 3                   
#>  5 5                   
#>  6 1                   
#>  7 6                   
#>  8 1                   
#>  9 2                   
#> 10 3                   
#> # ℹ 990 more rows

tof_metacluster_flowsom(
    tof_tibble = sim_data,
    cluster_col = cluster_id,
    clustering_algorithm = "som"
)
#> # A tibble: 1,000 × 1
#>    .flowsom_metacluster
#>    <chr>               
#>  1 1                   
#>  2 1                   
#>  3 1                   
#>  4 1                   
#>  5 3                   
#>  6 2                   
#>  7 1                   
#>  8 2                   
#>  9 2                   
#> 10 1                   
#> # ℹ 990 more rows
…
