Estimate cells' local densities as done in Spanning-tree Progression Analysis of Density-normalized Events (SPADE) — tof_spade_density • tidytof
…
    Examples

sim_data <-
    dplyr::tibble(
        cd45 = rnorm(n = 1000),
        cd38 = rnorm(n = 1000),
        cd34 = rnorm(n = 1000),
        cd19 = rnorm(n = 1000)
    )

# perform the density estimation
tof_spade_density(tof_tibble = sim_data)
#> # A tibble: 1,000 × 1
#>    .spade_density
#>             <dbl>
#>  1              1
#>  2              1
#>  3              1
#>  4              1
#>  5              1
#>  6              1
#>  7              1
#>  8              1
#>  9              1
#> 10              1
#> # ℹ 990 more rows

# perform the density estimation using cosine distance
tof_spade_density(
    tof_tibble = sim_data,
    distance_function = "cosine",
    alpha_multiplier = 2
)
#> # A tibble: 1,000 × 1
#>    .spade_density
#>             <dbl>
#>  1          0.444
#>  2          0.111
#>  3          0    
#>  4          0.333
#>  5          0.444
#>  6          0.111
#>  7          0.111
#>  8          0.222
#>  9          0    
#> 10          0.222
#> # ℹ 990 more rows

# perform the density estimation with a smaller search radius around
# each cell
tof_spade_density(
    tof_tibble = sim_data,
    alpha_multiplier = 2
)
#> # A tibble: 1,000 × 1
#>    .spade_density
#>             <dbl>
#>  1            0.5
#>  2            0  
#>  3            1  
#>  4            1  
#>  5            0  
#>  6            1  
#>  7            1  
#>  8            0.6
#>  9            0.1
#> 10            0.9
#> # ℹ 990 more rows
…
