Extract aggregated features from CyTOF data using a binary threshold — tof_extract_threshold • tidytof
…
# extract proportion of each cluster in each patient in long format
tof_extract_threshold(
    tof_tibble = sim_data,
    cluster_col = cluster_id,
    group_cols = patient,
    format = "long"
)
#> # A tibble: 208 × 4
#>    patient cluster_id channel values
#>    <chr>   <chr>      <chr>    <dbl>
#>  1 kirby   a          cd45    0     
#>  2 kirby   a          cd38    0.0625
#>  3 kirby   a          cd34    0.0625
#>  4 kirby   a          cd19    0.0625
#>  5 kirby   b          cd45    0.1   
#>  6 kirby   b          cd38    0     
#>  7 kirby   b          cd34    0.05  
#>  8 kirby   b          cd19    0.05  
#>  9 kirby   c          cd45    0     
#> 10 kirby   c          cd38    0.125 
#> # ℹ 198 more rows
…
