Upsample cells into the closest cluster in a reference dataset — tof_upsample_distance • tidytof
…
# upsample using mahalanobis distance
tof_upsample_distance(
    tof_tibble = sim_data,
    reference_tibble = reference_data,
    reference_cluster_col = cluster_id
)
#> # A tibble: 1,000 × 1
#>    .upsample_cluster
#>    <chr>            
#>  1 a                
#>  2 b                
#>  3 a                
#>  4 a                
#>  5 b                
#>  6 a                
#>  7 a                
#>  8 a                
#>  9 b                
#> 10 b                
#> # ℹ 990 more rows

# upsample using cosine distance
tof_upsample_distance(
    tof_tibble = sim_data,
    reference_tibble = reference_data,
    reference_cluster_col = cluster_id,
    distance_function = "cosine"
)
#> # A tibble: 1,000 × 1
#>    .upsample_cluster
#>    <chr>            
#>  1 a                
#>  2 b                
#>  3 a                
#>  4 a                
#>  5 b                
#>  6 a                
#>  7 a                
#>  8 a                
#>  9 b                
#> 10 b                
#> # ℹ 990 more rows
…
