Perform t-distributed stochastic neighborhood embedding on single-cell data — tof_reduce_tsne • tidytof
…
    Examples

# simulate single-cell data
sim_data <-
    dplyr::tibble(
        cd45 = rnorm(n = 200),
        cd38 = rnorm(n = 200),
        cd34 = rnorm(n = 200),
        cd19 = rnorm(n = 200)
    )

# calculate tsne
tof_reduce_tsne(tof_tibble = sim_data)
#> # A tibble: 200 × 2
#>    .tsne1 .tsne2
#>     <dbl>  <dbl>
#>  1 -5.23   0.651
#>  2  0.253 -4.95 
#>  3 -3.33   5.10 
#>  4 -6.28  -2.15 
#>  5  4.39   0.355
#>  6 -2.62   0.632
#>  7 -3.55  -9.00 
#>  8  0.862 -2.13 
#>  9 -2.39  -0.260
#> 10 -5.35  -5.82 
#> # ℹ 190 more rows

# calculate tsne with only 2 columns
tof_reduce_tsne(tof_tibble = sim_data, tsne_cols = c(cd34, cd38))
#> # A tibble: 200 × 2
#>    .tsne1 .tsne2
#>     <dbl>  <dbl>
#>  1 -6.55  -3.80 
#>  2 -5.35   1.96 
#>  3  0.900  0.330
#>  4 -3.09  -5.67 
#>  5  2.06  -1.33 
#>  6 -0.282 -6.70 
#>  7 -5.48   4.56 
#>  8 -1.71  -1.26 
#>  9 -0.977 -6.83 
#> 10 -4.52  -1.36 
#> # ℹ 190 more rows
…
