Clustering and metaclustering • tidytof
…
The output of tof_cluster is a tof_tbl identical to the input tibble, but now with the addition of an additional column (in this case, “.flowsom_metacluster”) that encodes the cluster id for each cell in the input tof_tbl. Note that all output columns added to a tibble or tof_tbl by tidytof begin with a full-stop (“.”) to reduce the likelihood of collisions with existing column names.

Because the output of tof_cluster is a tof_tbl, we can use dplyr’s count method to assess the accuracy of the FlowSOM clustering compared to the original clustering from the PhenoGraph paper.

phenograph_clusters %>% 
  count(phenograph_cluster, .flowsom_metacluster, sort = TRUE)
#> # A tibble: 23 × 3
#>    phenograph_cluster .flowsom_metacluster     n
#>    <chr>              <chr>                <int>
#>  1 cluster3           5                      421
#>  2 cluster1           17                     234
#>  3 cluster3           11                     223
#>  4 cluster2           3                      210
#>  5 cluster3           13                     190
#>  6 cluster1           20                     181
#>  7 cluster2           6                      164
#>  8 cluster2           7                      164
#>  9 cluster1           19                     163
#> 10 cluster2           2                      162
#> # … with 13 more rows
…
