Dimensionality reduction • tidytof
…
By default, tof_reduce_dimensions will add
reduced-dimension feature embeddings to the input tof_tbl
and return the augmented tof_tbl (that is, a
tof_tbl with new columns for each embedding dimension) as
its result. To return only the features embeddings themselves, set
augment to FALSE (as in
tof_cluster).

phenograph_data |>
    tof_preprocess() |>
    tof_reduce_dimensions(method = "tsne", augment = FALSE)
#> # A tibble: 3,000 × 2
#>    .tsne1  .tsne2
#>     <dbl>   <dbl>
#>  1   17.1   2.43 
#>  2   16.5  -3.71 
#>  3   15.9 -29.0  
#>  4   22.1 -11.8  
#>  5   19.2  -0.468
#>  6   15.9 -16.9  
#>  7   11.7  -8.09 
#>  8   14.9 -22.7  
#>  9   12.9 -16.7  
#> 10   10.9  -1.26 
#> # ℹ 2,990 more rows

Changing the method argument results in different
low-dimensional embeddings:

phenograph_data |>
    tof_reduce_dimensions(method = "umap", augment = FALSE)
#> # A tibble: 3,000 × 2
#>    .umap1  .umap2
#>     <dbl>   <dbl>
#>  1  7.00  -6.04  
#>  2  7.17  -4.98  
#>  3  8.25  -1.61  
#>  4  7.57  -0.0927
#>  5  6.97  -6.26  
#>  6 -0.478  4.35  
#>  7  6.80  -6.59  
#>  8  8.73  -0.651 
#>  9  6.07  -1.20  
#> 10  8.87  -6.11  
#> # ℹ 2,990 more rows

phenograph_data |>
    tof_reduce_dimensions(method = "pca", augment = FALSE)
#> # A tibble: 3,000 × 5
#>       .pc1     .pc2   .pc3    .pc4   .pc5
#>      <dbl>    <dbl>  <dbl>   <dbl>  <dbl>
#>  1 -2.77    1.23    -0.868  0.978   3.49 
#>  2 -0.969  -1.02    -0.787  1.22    0.329
#>  3 -2.36    2.54    -1.95  -0.882  -1.30 
#>  4 -3.68   -0.00565  0.962  0.410   0.788
#>  5 -4.03    2.07    -0.829  1.59    5.39 
#>  6 -2.59   -0.108    1.32  -1.41   -1.24 
#>  7 -1.55   -0.651   -0.233  1.08    0.129
#>  8 -1.18   -0.446    0.134 -0.771  -0.932
#>  9 -2.00   -0.485    0.593 -0.0416 -0.658
#> 10 -0.0356 -0.924   -0.692  1.45    0.270
#> # ℹ 2,990 more rows
Method specifications for tof_reduce_*() functions

tof_reduce_dimensions() provides a high-level API for
three lower-level functions: tof_reduce_pca(),
tof_reduce_umap(), and tof_reduce_tsne(). The
help files for each of these functions provide details about the
algorithm-specific method specifications associated with each of these
dimensionality reduction approaches. For example,
tof_reduce_pca takes the num_comp argument to
determine how many principal components should be returned:

# 2 principal components
phenograph_data |>
    tof_reduce_pca(num_comp = 2)
#> # A tibble: 3,000 × 2
#>       .pc1     .pc2
#>      <dbl>    <dbl>
#>  1 -2.77    1.23   
#>  2 -0.969  -1.02   
#>  3 -2.36    2.54   
#>  4 -3.68   -0.00565
#>  5 -4.03    2.07   
#>  6 -2.59   -0.108  
#>  7 -1.55   -0.651  
#>  8 -1.18   -0.446  
#>  9 -2.00   -0.485  
#> 10 -0.0356 -0.924  
#> # ℹ 2,990 more rows

# 3 principal components
phenograph_data |>
    tof_reduce_pca(num_comp = 3)
#> # A tibble: 3,000 × 3
#>       .pc1     .pc2   .pc3
#>      <dbl>    <dbl>  <dbl>
#>  1 -2.77    1.23    -0.868
#>  2 -0.969  -1.02    -0.787
#>  3 -2.36    2.54    -1.95 
#>  4 -3.68   -0.00565  0.962
#>  5 -4.03    2.07    -0.829
#>  6 -2.59   -0.108    1.32 
#>  7 -1.55   -0.651   -0.233
#>  8 -1.18   -0.446    0.134
#>  9 -2.00   -0.485    0.593
#> 10 -0.0356 -0.924   -0.692
#> # ℹ 2,990 more rows
…
