Building predictive models • tidytof
…
The output of tof_train_model is a
tof_model, an object containing information about the
trained model (and that can be passed to the tof_predict
and tof_assess_model verbs). When a tof_model
is printed, some information about the optimal hyperparamters is
printed, and so is a table of the nonzero model coefficients in the
model.

print(class_mod)
#> A two-class `tof_model` with a mixture parameter (alpha) of 1 and a penalty parameter (lambda) of 1e-10 
#> # A tibble: 28 × 2
#>    feature               coefficient
#>    <chr>                       <dbl>
#>  1 p4EBP1_dP_IL7_Pop2          -3.10
#>  2 pCreb_dP_PVO4_Pop2          -2.66
#>  3 TSLPr_Pop2                   2.07
#>  4 CD43_Pop2                    2.00
#>  5 pSTAT5_FC_PVO4_Pop2         -1.80
#>  6 pS6_dP_IL7_Pop2              1.56
#>  7 pPLCg1_2_dP_PVO4_Pop2        1.44
#>  8 (Intercept)                 -1.43
#>  9 pSTAT5_FC_BCR_Pop2           1.24
#> 10 pErk_dP_IL7_Pop2            -1.23
#> # ℹ 18 more rows
…
survival_mod <- 
  training_split %>% 
  tof_train_model(
    predictor_cols = c(contains("Pop2")), 
    time_col = time_to_event, 
    event_col = event, 
    model_type = "survival", 
    hyperparameter_grid = hyperparams, 
    impute_missing_predictors = TRUE, 
    remove_zv_predictors = TRUE # often a smart decision
  )

print(survival_mod)
#> A survival `tof_model` with a mixture parameter (alpha) of 1 and a penalty parameter (lambda) of 3.162e-03 
#> # A tibble: 40 × 2
#>    feature               coefficient
#>    <chr>                       <dbl>
#>  1 pErk_dP_TSLP_Pop2           -7.03
#>  2 pCreb_dP_PVO4_Pop2          -5.47
#>  3 CD19_Pop2                   -3.73
#>  4 CD34_Pop2                    3.63
#>  5 pSTAT5_FC_BCR_Pop2           3.40
#>  6 HLADR_Pop2                  -3.38
#>  7 pPLCg1_2_dP_IL7_Pop2         3.33
#>  8 pPLCg1_2_dP_PVO4_Pop2        3.14
#>  9 pSyk_dP_TSLP_Pop2            2.88
#> 10 CD123_Pop2                   2.77
#> # ℹ 30 more rows
…
survival_metrics <- 
  survival_mod %>% 
  tof_assess_model()

survival_metrics
#> $model_metrics
#> # A tibble: 3 × 2
#>   metric                        value
#>   <chr>                         <dbl>
#> 1 neg_log_partial_likelihood 1.76e+ 1
#> 2 concordance_index          1   e+ 0
#> 3 log_rank_p_value           1.47e-22
#> 
#> $survival_curves
#> # A tibble: 61 × 6
#>    row_index survival_curve    relative_risk time_to_event event risk_group
#>    <chr>     <list>                    <dbl>         <dbl> <dbl> <chr>     
#>  1 1         <tibble [54 × 2]>       2.83e+3          1043     1 low       
#>  2 2         <tibble [54 × 2]>       2.61e+3          1043     1 low       
#>  3 3         <tibble [54 × 2]>       1.58e-8          5406     0 low       
#>  4 4         <tibble [54 × 2]>       2.09e-4          4917     0 low       
#>  5 5         <tibble [54 × 2]>       9.98e-3          4538     0 low       
#>  6 6         <tibble [54 × 2]>       6.62e-1          4490     0 low       
#>  7 7         <tibble [54 × 2]>       4.09e+9           136     1 high      
#>  8 8         <tibble [54 × 2]>       2.57e+8           364     1 high      
#>  9 9         <tibble [54 × 2]>       1.27e+9           237     1 high      
#> 10 10        <tibble [54 × 2]>       2.31e+4           886     1 low       
#> # ℹ 51 more rows
…
