Preprocessing • tidytof
…
As an example, we can preprocess tidytof’s built-in
phenograph_data tof_tibble and see how our
first few measurements change before and after.

data(phenograph_data)

# before preprocessing
phenograph_data %>%
    select(cd45, cd34, cd38) %>%
    head()
#> # A tibble: 6 × 3
#>    cd45   cd34  cd38
#>   <dbl>  <dbl> <dbl>
#> 1  131.  3.23   1.51
#> 2  230. -0.582 11.4 
#> 3  293.  5.20   1.84
#> 4  431.  0.363 13.3 
#> # ℹ 2 more rows

phenograph_data %>%
    # perform preprocessing
    tof_preprocess() %>%
    # inspect new values
    select(cd45, cd34, cd38) %>%
    head()
#> # A tibble: 6 × 3
#>    cd45    cd34  cd38
#>   <dbl>   <dbl> <dbl>
#> 1  3.96  0.608  0.298
#> 2  4.52 -0.116  1.56 
#> 3  4.76  0.909  0.360
#> 4  5.15  0.0725 1.70 
#> # ℹ 2 more rows
To alter tof_preprocess’s default behavior, change the
channel_cols argument to specify which columns of
tof_tibble should be transformed. Alter the
transform_fun argument to specify a vector-valued function
that should be used to transform each of the channel_cols.
For example, suppose we want to center and scale each of our numeric
columns instead of arcsinh-transforming them:

phenograph_data %>%
    # preprocess
    tof_preprocess(transform_fun = scale) %>%
    # inspect new values
    select(cd45, cd34, cd38) %>%
    head()
#> # A tibble: 6 × 3
#>   cd45[,1] cd34[,1] cd38[,1]
#>      <dbl>    <dbl>    <dbl>
#> 1   -1.40     1.01   -0.437 
#> 2   -1.15    -0.911   0.0316
#> 3   -0.999    2.00   -0.422 
#> 4   -0.661   -0.436   0.120 
#> # ℹ 2 more rows
…
Postprocessing with tof_postprocess

As a final note, note that the built-in function
tof_postprocess works nearly identically
tof_preprocess, but provides different default behavior
(namely, applying the reverse arcsinh transformation with a cofactor of
5 to all numeric columns. See ?tof_postprocess for
details).

print(phenograph_data) %>%
    select(cd45, cd34, cd38) %>%
    head()
#> # A tibble: 3,000 × 25
#>   sample_name  phenograph_cluster    cd19 cd11b   cd34  cd45  cd123   cd33  cd47
#>   <chr>        <chr>                <dbl> <dbl>  <dbl> <dbl>  <dbl>  <dbl> <dbl>
#> 1 H1_PhenoGra… cluster1           -0.168  29.0   3.23   131. -0.609  1.21   13.0
#> 2 H1_PhenoGra… cluster1            1.65    4.83 -0.582  230.  2.53  -0.507  12.9
#> 3 H1_PhenoGra… cluster1            2.79   36.1   5.20   293. -0.265  3.67   27.1
#> 4 H1_PhenoGra… cluster1            0.0816 48.8   0.363  431.  2.04   9.40   41.0
#> # ℹ 2,996 more rows
#> # ℹ 16 more variables: cd7 <dbl>, cd44 <dbl>, cd38 <dbl>, cd3 <dbl>,
#> #   cd117 <dbl>, cd64 <dbl>, cd41 <dbl>, pstat3 <dbl>, pstat5 <dbl>,
#> #   pampk <dbl>, p4ebp1 <dbl>, ps6 <dbl>, pcreb <dbl>, `pzap70-syk` <dbl>,
#> #   prb <dbl>, `perk1-2` <dbl>
#> # A tibble: 6 × 3
#>    cd45   cd34  cd38
#>   <dbl>  <dbl> <dbl>
#> 1  131.  3.23   1.51
#> 2  230. -0.582 11.4 
#> 3  293.  5.20   1.84
#> 4  431.  0.363 13.3 
#> # ℹ 2 more rows

# after preprocessing and post-processing, the data are the same
# except that the re-added noise component is different for each value
phenograph_data %>%
    tof_preprocess() %>%
    tof_postprocess(redo_noise = TRUE) %>%
    select(cd45, cd34, cd38) %>%
    head()
#> # A tibble: 6 × 3
#>    cd45    cd34   cd38
#>   <dbl>   <dbl>  <dbl>
#> 1  130.  2.42    0.896
#> 2  230. -1.19   11.1  
#> 3  293.  5.14    0.954
#> 4  431. -0.0128 13.0  
#> # ℹ 2 more rows
…
