Quality control • tidytof
…
For the levine dataset, we look for markers that have
more than 97.5% of cells below a threshold of 5 ion counts:

# convert 5 counts to asinh value with a cofactor of 5
threshold <- asinh(5/5)

levine |> 
  tof_assess_channels(
    negative_threshold = threshold, 
    negative_proportion_flag = 0.975
  )
#> # A tibble: 38 × 3
#>    channel negative_proportion flagged_channel
#>    <chr>                 <dbl> <lgl>          
#>  1 cd14                  0.988 TRUE           
#>  2 cd133                 0.975 TRUE           
#>  3 cd117                 0.969 FALSE          
#>  4 cd16                  0.967 FALSE          
#>  5 flt3                  0.960 FALSE          
#>  6 cd15                  0.940 FALSE          
#>  7 cd41                  0.923 FALSE          
#>  8 cd34                  0.909 FALSE          
#>  9 cd61                  0.890 FALSE          
#> 10 cd33                  0.885 FALSE          
#> # ℹ 28 more rows
…
#> # A tibble: 265,627 × 3
#>     time timestep flagged_window
#>    <dbl>    <dbl> <lgl>         
#>  1  2693        1 FALSE         
#>  2   850        1 FALSE         
#>  3  3002        1 FALSE         
#>  4  3082        1 FALSE         
#>  5  3248        1 FALSE         
#>  6  3363        1 FALSE         
#>  7  3521        1 FALSE         
#>  8  1680        1 FALSE         
#>  9  3072        1 FALSE         
#> 10  3339        1 FALSE         
#> # ℹ 265,617 more rows
…
#> # A tibble: 265,627 × 4
#>    file_number  time timestep flagged_window
#>    <chr>       <dbl>    <dbl> <lgl>         
#>  1 94            850        1 TRUE          
#>  2 94           1680        1 TRUE          
#>  3 94            856        1 TRUE          
#>  4 94           1982        1 TRUE          
#>  5 94           2163        1 TRUE          
#>  6 94            689        1 TRUE          
#>  7 94           1353        1 TRUE          
#>  8 94            176        1 TRUE          
#>  9 94            193        1 TRUE          
#> 10 94            468        1 TRUE          
#> # ℹ 265,617 more rows
…
