Reading and writing data • tidytof
…
tof tibbles are an S3 class identical to tbl_df, but
with one additional attribute (“panel”). tidytof stores
this additional attribute in tof_tbls because, in addition
to analyzing CyTOF data from individual experiments, CyTOF users often
want to compare panels between experiments to find common markers or to
compare which metals are associated with particular markers across
panels. To retrieve this panel information from a tof_tbl,
use tof_get_panel:

phenograph %>% 
  tof_get_panel()
#> # A tibble: 44 × 2
#>   metals      antigens   
#>   <chr>       <chr>      
#> 1 Time        Time       
#> 2 Cell_length Cell_length
#> 3 Ir191       DNA1       
#> 4 Ir193       DNA2       
#> # ℹ 40 more rows
…
phenograph <- 
  phenograph %>% 
  # mutate the input tof_tbl
  mutate(
    PhenoGraph = as.character(PhenoGraph), 
    Condition = as.character(Condition)
  )

phenograph %>% 
  # use dplyr's select method to show 
  # that the columns have been changed
  select(where(is.character)) 
#> # A tibble: 300 × 3
#>   file_name                  PhenoGraph Condition
#>   <chr>                      <chr>      <chr>    
#> 1 H1_PhenoGraph_cluster1.fcs 7          7        
#> 2 H1_PhenoGraph_cluster1.fcs 6          6        
#> 3 H1_PhenoGraph_cluster1.fcs 9          9        
#> 4 H1_PhenoGraph_cluster1.fcs 2          2        
#> # ℹ 296 more rows
…
# to add a panel manually, provide it as a tibble 
# to tof_read_data
phenograph_panel <- 
  phenograph %>% 
  tof_get_panel()

tidytof_example_data("phenograph_csv") %>% 
  tof_read_data(panel_info = phenograph_panel) %>% 
  tof_get_panel()
#> # A tibble: 44 × 2
#>   antigens    metals     
#>   <chr>       <chr>      
#> 1 Time        Time       
#> 2 Cell_length Cell_length
#> 3 DNA1        Ir191      
#> 4 DNA2        Ir193      
#> # ℹ 40 more rows

Writing data from a tof_tbl to disk

Users may wish to store CyTOF data as FCS or CSV files after
transformation, concatenation, filtering, or other data processing. To
write single-cell data from a tof_tbl into FCS or CSV
files, use tof_write_data. To illustrate how to use this
verb, we use the tidytof’s built-in
phenograph_data dataset.

data(phenograph_data)

print(phenograph_data)
#> # A tibble: 3,000 × 25
#>   sample_name  phenograph_cluster    cd19 cd11b   cd34  cd45  cd123   cd33  cd47
#>   <chr>        <chr>                <dbl> <dbl>  <dbl> <dbl>  <dbl>  <dbl> <dbl>
#> 1 H1_PhenoGra… cluster1           -0.168  29.0   3.23   131. -0.609  1.21   13.0
#> 2 H1_PhenoGra… cluster1            1.65    4.83 -0.582  230.  2.53  -0.507  12.9
#> 3 H1_PhenoGra… cluster1            2.79   36.1   5.20   293. -0.265  3.67   27.1
#> 4 H1_PhenoGra… cluster1            0.0816 48.8   0.363  431.  2.04   9.40   41.0
#> # ℹ 2,996 more rows
#> # ℹ 16 more variables: cd7 <dbl>, cd44 <dbl>, cd38 <dbl>, cd3 <dbl>,
#> #   cd117 <dbl>, cd64 <dbl>, cd41 <dbl>, pstat3 <dbl>, pstat5 <dbl>,
#> #   pampk <dbl>, p4ebp1 <dbl>, ps6 <dbl>, pcreb <dbl>, `pzap70-syk` <dbl>,
#> #   prb <dbl>, `perk1-2` <dbl>
…
cluster3_low.fcs

cluster3_high.fcs

As above, note that these file names match the distinct values in our
group_cols columns (phenograph_cluster and
expression_group):

phenograph_data %>% 
  mutate(
    expression_group = if_else(pstat5 > median(pstat5), "high", "low")
  ) %>% 
  distinct(phenograph_cluster, expression_group)
#> # A tibble: 6 × 2
#>   phenograph_cluster expression_group
#>   <chr>              <chr>           
#> 1 cluster1           low             
#> 2 cluster1           high            
#> 3 cluster2           low             
#> 4 cluster2           high            
#> # ℹ 2 more rows
…
